(dp0
S'24'
p1
(lp2
(lp3
(lp4
I302
aI12
aa(lp5
I335
aI12
aa(lp6
I369
aI12
aa(lp7
I402
aI12
aaasS'25'
p8
(lp9
(lp10
(lp11
I302
aI13
aa(lp12
I335
aI13
aa(lp13
I369
aI13
aa(lp14
I402
aI13
aaasS'26'
p15
(lp16
(lp17
(lp18
I302
aI14
aa(lp19
I335
aI14
aa(lp20
I369
aI14
aa(lp21
I402
aI14
aaasS'27'
p22
(lp23
(lp24
(lp25
I302
aI15
aa(lp26
I335
aI15
aa(lp27
I369
aI15
aa(lp28
I402
aI15
aaasS'20'
p29
(lp30
(lp31
(lp32
I68
aI28
aa(lp33
I102
aI28
aa(lp34
I135
aI28
aa(lp35
I168
aI28
aaasS'21'
p36
(lp37
(lp38
(lp39
I68
aI29
aa(lp40
I102
aI29
aa(lp41
I135
aI29
aa(lp42
I168
aI29
aaasS'22'
p43
(lp44
(lp45
(lp46
I302
aI10
aa(lp47
I335
aI10
aa(lp48
I369
aI10
aa(lp49
I402
aI10
aaasS'23'
p50
(lp51
(lp52
(lp53
I302
aI11
aa(lp54
I335
aI11
aa(lp55
I369
aI11
aa(lp56
I402
aI11
aaasS'28'
p57
(lp58
(lp59
(lp60
I302
aI16
aa(lp61
I335
aI16
aa(lp62
I369
aI16
aa(lp63
I402
aI16
aaasS'29'
p64
(lp65
(lp66
(lp67
I302
aI17
aa(lp68
I335
aI17
aa(lp69
I369
aI17
aa(lp70
I402
aI17
aaasS'4'
p71
(lp72
(lp73
(lp74
I68
aI12
aa(lp75
I102
aI12
aa(lp76
I135
aI12
aa(lp77
I168
aI12
aaasS'8'
p78
(lp79
(lp80
(lp81
I68
aI16
aa(lp82
I102
aI16
aa(lp83
I135
aI16
aa(lp84
I168
aI16
aaasS'59'
p85
(lp86
(lp87
(lp88
I535
aI27
aa(lp89
I569
aI27
aa(lp90
I602
aI27
aa(lp91
I635
aI27
aaasS'58'
p92
(lp93
(lp94
(lp95
I535
aI26
aa(lp96
I569
aI26
aa(lp97
I602
aI26
aa(lp98
I635
aI26
aaasS'55'
p99
(lp100
(lp101
(lp102
I535
aI23
aa(lp103
I569
aI23
aa(lp104
I602
aI23
aa(lp105
I635
aI23
aaasS'54'
p106
(lp107
(lp108
(lp109
I535
aI22
aa(lp110
I569
aI22
aa(lp111
I602
aI22
aa(lp112
I635
aI22
aaasS'57'
p113
(lp114
(lp115
(lp116
I535
aI25
aa(lp117
I569
aI25
aa(lp118
I602
aI25
aa(lp119
I635
aI25
aaasS'56'
p120
(lp121
(lp122
(lp123
I535
aI24
aa(lp124
I569
aI24
aa(lp125
I602
aI24
aa(lp126
I635
aI24
aaasS'51'
p127
(lp128
(lp129
(lp130
I535
aI19
aa(lp131
I569
aI19
aa(lp132
I602
aI19
aa(lp133
I635
aI19
aaasS'50'
p134
(lp135
(lp136
(lp137
I535
aI18
aa(lp138
I569
aI18
aa(lp139
I602
aI18
aa(lp140
I635
aI18
aaasS'53'
p141
(lp142
(lp143
(lp144
I535
aI21
aa(lp145
I569
aI21
aa(lp146
I602
aI21
aa(lp147
I635
aI21
aaasS'52'
p148
(lp149
(lp150
(lp151
I535
aI20
aa(lp152
I569
aI20
aa(lp153
I602
aI20
aa(lp154
I635
aI20
aaasS'88'
p155
(lp156
(lp157
(lp158
I1003
aI16
aa(lp159
I1036
aI16
aa(lp160
I1069
aI16
aa(lp161
I1102
aI16
aaasS'89'
p162
(lp163
(lp164
(lp165
I1003
aI17
aa(lp166
I1036
aI17
aa(lp167
I1069
aI17
aa(lp168
I1102
aI17
aaasS'82'
p169
(lp170
(lp171
(lp172
I1003
aI10
aa(lp173
I1036
aI10
aa(lp174
I1069
aI10
aa(lp175
I1102
aI10
aaasS'83'
p176
(lp177
(lp178
(lp179
I1003
aI11
aa(lp180
I1036
aI11
aa(lp181
I1069
aI11
aa(lp182
I1102
aI11
aaasS'80'
p183
(lp184
(lp185
(lp186
I769
aI28
aa(lp187
I802
aI28
aa(lp188
I836
aI28
aa(lp189
I869
aI28
aaasS'81'
p190
(lp191
(lp192
(lp193
I769
aI29
aa(lp194
I802
aI29
aa(lp195
I836
aI29
aa(lp196
I869
aI29
aaasS'86'
p197
(lp198
(lp199
(lp200
I1003
aI14
aa(lp201
I1036
aI14
aa(lp202
I1069
aI14
aa(lp203
I1102
aI14
aaasS'87'
p204
(lp205
(lp206
(lp207
I1003
aI15
aa(lp208
I1036
aI15
aa(lp209
I1069
aI15
aa(lp210
I1102
aI15
aaasS'84'
p211
(lp212
(lp213
(lp214
I1003
aI12
aa(lp215
I1036
aI12
aa(lp216
I1069
aI12
aa(lp217
I1102
aI12
aaasS'85'
p218
(lp219
(lp220
(lp221
I1003
aI13
aa(lp222
I1036
aI13
aa(lp223
I1069
aI13
aa(lp224
I1102
aI13
aaasS'3'
p225
(lp226
(lp227
(lp228
I68
aI11
aa(lp229
I102
aI11
aa(lp230
I135
aI11
aa(lp231
I168
aI11
aaasS'7'
p232
(lp233
(lp234
(lp235
I68
aI15
aa(lp236
I102
aI15
aa(lp237
I135
aI15
aa(lp238
I168
aI15
aaasS'39'
p239
(lp240
(lp241
(lp242
I302
aI27
aa(lp243
I335
aI27
aa(lp244
I369
aI27
aa(lp245
I402
aI27
aaasS'38'
p246
(lp247
(lp248
(lp249
I302
aI26
aa(lp250
I335
aI26
aa(lp251
I369
aI26
aa(lp252
I402
aI26
aaasS'33'
p253
(lp254
(lp255
(lp256
I302
aI21
aa(lp257
I335
aI21
aa(lp258
I369
aI21
aa(lp259
I402
aI21
aaasS'32'
p260
(lp261
(lp262
(lp263
I302
aI20
aa(lp264
I335
aI20
aa(lp265
I369
aI20
aa(lp266
I402
aI20
aaasS'31'
p267
(lp268
(lp269
(lp270
I302
aI19
aa(lp271
I335
aI19
aa(lp272
I369
aI19
aa(lp273
I402
aI19
aaasS'30'
p274
(lp275
(lp276
(lp277
I302
aI18
aa(lp278
I335
aI18
aa(lp279
I369
aI18
aa(lp280
I402
aI18
aaasS'37'
p281
(lp282
(lp283
(lp284
I302
aI25
aa(lp285
I335
aI25
aa(lp286
I369
aI25
aa(lp287
I402
aI25
aaasS'36'
p288
(lp289
(lp290
(lp291
I302
aI24
aa(lp292
I335
aI24
aa(lp293
I369
aI24
aa(lp294
I402
aI24
aaasS'35'
p295
(lp296
(lp297
(lp298
I302
aI23
aa(lp299
I335
aI23
aa(lp300
I369
aI23
aa(lp301
I402
aI23
aaasS'34'
p302
(lp303
(lp304
(lp305
I302
aI22
aa(lp306
I335
aI22
aa(lp307
I369
aI22
aa(lp308
I402
aI22
aaasS'60'
p309
(lp310
(lp311
(lp312
I535
aI28
aa(lp313
I569
aI28
aa(lp314
I602
aI28
aa(lp315
I635
aI28
aaasS'61'
p316
(lp317
(lp318
(lp319
I535
aI29
aa(lp320
I569
aI29
aa(lp321
I602
aI29
aa(lp322
I635
aI29
aaasS'62'
p323
(lp324
(lp325
(lp326
I769
aI10
aa(lp327
I802
aI10
aa(lp328
I836
aI10
aa(lp329
I869
aI10
aaasS'63'
p330
(lp331
(lp332
(lp333
I769
aI11
aa(lp334
I802
aI11
aa(lp335
I836
aI11
aa(lp336
I869
aI11
aaasS'64'
p337
(lp338
(lp339
(lp340
I769
aI12
aa(lp341
I802
aI12
aa(lp342
I836
aI12
aa(lp343
I869
aI12
aaasS'65'
p344
(lp345
(lp346
(lp347
I769
aI13
aa(lp348
I802
aI13
aa(lp349
I836
aI13
aa(lp350
I869
aI13
aaasS'66'
p351
(lp352
(lp353
(lp354
I769
aI14
aa(lp355
I802
aI14
aa(lp356
I836
aI14
aa(lp357
I869
aI14
aaasS'67'
p358
(lp359
(lp360
(lp361
I769
aI15
aa(lp362
I802
aI15
aa(lp363
I836
aI15
aa(lp364
I869
aI15
aaasS'68'
p365
(lp366
(lp367
(lp368
I769
aI16
aa(lp369
I802
aI16
aa(lp370
I836
aI16
aa(lp371
I869
aI16
aaasS'69'
p372
(lp373
(lp374
(lp375
I769
aI17
aa(lp376
I802
aI17
aa(lp377
I836
aI17
aa(lp378
I869
aI17
aaasS'2'
p379
(lp380
(lp381
(lp382
I68
aI10
aa(lp383
I102
aI10
aa(lp384
I135
aI10
aa(lp385
I168
aI10
aaasS'6'
p386
(lp387
(lp388
(lp389
I68
aI14
aa(lp390
I102
aI14
aa(lp391
I135
aI14
aa(lp392
I168
aI14
aaasS'91'
p393
(lp394
(lp395
(lp396
I1003
aI19
aa(lp397
I1036
aI19
aa(lp398
I1069
aI19
aa(lp399
I1102
aI19
aaasS'90'
p400
(lp401
(lp402
(lp403
I1003
aI18
aa(lp404
I1036
aI18
aa(lp405
I1069
aI18
aa(lp406
I1102
aI18
aaasS'93'
p407
(lp408
(lp409
(lp410
I1003
aI21
aa(lp411
I1036
aI21
aa(lp412
I1069
aI21
aa(lp413
I1102
aI21
aaasS'92'
p414
(lp415
(lp416
(lp417
I1003
aI20
aa(lp418
I1036
aI20
aa(lp419
I1069
aI20
aa(lp420
I1102
aI20
aaasS'95'
p421
(lp422
(lp423
(lp424
I1003
aI23
aa(lp425
I1036
aI23
aa(lp426
I1069
aI23
aa(lp427
I1102
aI23
aaasS'94'
p428
(lp429
(lp430
(lp431
I1003
aI22
aa(lp432
I1036
aI22
aa(lp433
I1069
aI22
aa(lp434
I1102
aI22
aaasS'96'
p435
(lp436
(lp437
(lp438
I1003
aI24
aa(lp439
I1036
aI24
aa(lp440
I1069
aI24
aa(lp441
I1102
aI24
aaasS'11'
p442
(lp443
(lp444
(lp445
I68
aI19
aa(lp446
I102
aI19
aa(lp447
I135
aI19
aa(lp448
I168
aI19
aaasS'10'
p449
(lp450
(lp451
(lp452
I68
aI18
aa(lp453
I102
aI18
aa(lp454
I135
aI18
aa(lp455
I168
aI18
aaasS'13'
p456
(lp457
(lp458
(lp459
I68
aI21
aa(lp460
I102
aI21
aa(lp461
I135
aI21
aa(lp462
I168
aI21
aaasS'12'
p463
(lp464
(lp465
(lp466
I68
aI20
aa(lp467
I102
aI20
aa(lp468
I135
aI20
aa(lp469
I168
aI20
aaasS'15'
p470
(lp471
(lp472
(lp473
I68
aI23
aa(lp474
I102
aI23
aa(lp475
I135
aI23
aa(lp476
I168
aI23
aaasS'14'
p477
(lp478
(lp479
(lp480
I68
aI22
aa(lp481
I102
aI22
aa(lp482
I135
aI22
aa(lp483
I168
aI22
aaasS'17'
p484
(lp485
(lp486
(lp487
I68
aI25
aa(lp488
I102
aI25
aa(lp489
I135
aI25
aa(lp490
I168
aI25
aaasS'16'
p491
(lp492
(lp493
(lp494
I68
aI24
aa(lp495
I102
aI24
aa(lp496
I135
aI24
aa(lp497
I168
aI24
aaasS'19'
p498
(lp499
(lp500
(lp501
I68
aI27
aa(lp502
I102
aI27
aa(lp503
I135
aI27
aa(lp504
I168
aI27
aaasS'18'
p505
(lp506
(lp507
(lp508
I68
aI26
aa(lp509
I102
aI26
aa(lp510
I135
aI26
aa(lp511
I168
aI26
aaasS'48'
p512
(lp513
(lp514
(lp515
I535
aI16
aa(lp516
I569
aI16
aa(lp517
I602
aI16
aa(lp518
I635
aI16
aaasS'49'
p519
(lp520
(lp521
(lp522
I535
aI17
aa(lp523
I569
aI17
aa(lp524
I602
aI17
aa(lp525
I635
aI17
aaasS'46'
p526
(lp527
(lp528
(lp529
I535
aI14
aa(lp530
I569
aI14
aa(lp531
I602
aI14
aa(lp532
I635
aI14
aaasS'47'
p533
(lp534
(lp535
(lp536
I535
aI15
aa(lp537
I569
aI15
aa(lp538
I602
aI15
aa(lp539
I635
aI15
aaasS'44'
p540
(lp541
(lp542
(lp543
I535
aI12
aa(lp544
I569
aI12
aa(lp545
I602
aI12
aa(lp546
I635
aI12
aaasS'45'
p547
(lp548
(lp549
(lp550
I535
aI13
aa(lp551
I569
aI13
aa(lp552
I602
aI13
aa(lp553
I635
aI13
aaasS'42'
p554
(lp555
(lp556
(lp557
I535
aI10
aa(lp558
I569
aI10
aa(lp559
I602
aI10
aa(lp560
I635
aI10
aaasS'43'
p561
(lp562
(lp563
(lp564
I535
aI11
aa(lp565
I569
aI11
aa(lp566
I602
aI11
aa(lp567
I635
aI11
aaasS'40'
p568
(lp569
(lp570
(lp571
I302
aI28
aa(lp572
I335
aI28
aa(lp573
I369
aI28
aa(lp574
I402
aI28
aaasS'41'
p575
(lp576
(lp577
(lp578
I302
aI29
aa(lp579
I335
aI29
aa(lp580
I369
aI29
aa(lp581
I402
aI29
aaasS'1'
p582
(lp583
(lp584
(lp585
I535
aI4
aa(lp586
I535
aI5
aa(lp587
I535
aI6
aa(lp588
I535
aI7
aaasS'5'
p589
(lp590
(lp591
(lp592
I68
aI13
aa(lp593
I102
aI13
aa(lp594
I135
aI13
aa(lp595
I168
aI13
aaasS'9'
p596
(lp597
(lp598
(lp599
I68
aI17
aa(lp600
I102
aI17
aa(lp601
I135
aI17
aa(lp602
I168
aI17
aaasS'77'
p603
(lp604
(lp605
(lp606
I769
aI25
aa(lp607
I802
aI25
aa(lp608
I836
aI25
aa(lp609
I869
aI25
aaasS'76'
p610
(lp611
(lp612
(lp613
I769
aI24
aa(lp614
I802
aI24
aa(lp615
I836
aI24
aa(lp616
I869
aI24
aaasS'75'
p617
(lp618
(lp619
(lp620
I769
aI23
aa(lp621
I802
aI23
aa(lp622
I836
aI23
aa(lp623
I869
aI23
aaasS'74'
p624
(lp625
(lp626
(lp627
I769
aI22
aa(lp628
I802
aI22
aa(lp629
I836
aI22
aa(lp630
I869
aI22
aaasS'73'
p631
(lp632
(lp633
(lp634
I769
aI21
aa(lp635
I802
aI21
aa(lp636
I836
aI21
aa(lp637
I869
aI21
aaasS'72'
p638
(lp639
(lp640
(lp641
I769
aI20
aa(lp642
I802
aI20
aa(lp643
I836
aI20
aa(lp644
I869
aI20
aaasS'71'
p645
(lp646
(lp647
(lp648
I769
aI19
aa(lp649
I802
aI19
aa(lp650
I836
aI19
aa(lp651
I869
aI19
aaasS'70'
p652
(lp653
(lp654
(lp655
I769
aI18
aa(lp656
I802
aI18
aa(lp657
I836
aI18
aa(lp658
I869
aI18
aaasS'79'
p659
(lp660
(lp661
(lp662
I769
aI27
aa(lp663
I802
aI27
aa(lp664
I836
aI27
aa(lp665
I869
aI27
aaasS'78'
p666
(lp667
(lp668
(lp669
I769
aI26
aa(lp670
I802
aI26
aa(lp671
I836
aI26
aa(lp672
I869
aI26
aaas.